module gitlab.com/petstore

go 1.20

require (
	github.com/dgrijalva/jwt-go v3.2.0+incompatible // indirect
	github.com/go-chi/chi/v5 v5.0.11 // indirect
	github.com/go-chi/jwtauth v1.2.0 // indirect
	github.com/goccy/go-json v0.3.5 // indirect
	github.com/lestrrat-go/backoff/v2 v2.0.7 // indirect
	github.com/lestrrat-go/httpcc v1.0.0 // indirect
	github.com/lestrrat-go/iter v1.0.0 // indirect
	github.com/lestrrat-go/jwx v1.1.0 // indirect
	github.com/lestrrat-go/option v1.0.0 // indirect
	github.com/pkg/errors v0.9.1 // indirect
	golang.org/x/crypto v0.0.0-20201221181555-eec23a3978ad // indirect
)
